-------------------------------------------------------------------------------
Test set: com.cognizant.state.street.metadata.service.MetadataStatestreetApplicationTests
-------------------------------------------------------------------------------
Tests run: 1, Failures: 0, Errors: 0, Skipped: 0, Time elapsed: 18.314 sec - in com.cognizant.state.street.metadata.service.MetadataStatestreetApplicationTests
